temp/translation_logic/ptw/sample.log
rm -f results.xml
"gmake" -f Makefile results.xml
gmake[1]: Entering directory '/Users/keipon/Desktop/project/tt_pretraining/riscv-iommu-kawano/tb/translation_logic/ptw'
rm -f results.xml
COCOTB_TEST_MODULES=scenario.test_nested_walk,scenario.test_s1_invalid,scenario.test_s1_walk,scenario.test_s2_invalid,scenario.test_s2_walk COCOTB_TESTCASE= COCOTB_TEST_FILTER= COCOTB_TOPLEVEL=tb_ptw_wrapper TOPLEVEL_LANG=verilog \
         sim_build/Vtop  -I/Users/keipon/Desktop/project/tt_pretraining/riscv-iommu-kawano/packages/dependencies --trace --trace-structs -Wno-fatal   
     -.--ns INFO     gpi                                ..mbed/gpi_embed.cpp:94   in _embed_init_python              Using Python 3.12.10 interpreter at /Users/keipon/Desktop/project/tt_pretraining/riscv-iommu-kawano/tb/venv/bin/python3.12
     -.--ns INFO     gpi                                ../gpi/GpiCommon.cpp:79   in gpi_print_registered_impl       VPI registered
     0.00ns INFO     cocotb                             Running on Verilator version 5.046 2026-02-28
     0.00ns INFO     cocotb                             Seeding Python random module with 1776739452
     0.00ns INFO     cocotb                             Initialized cocotb v2.0.1 from /Users/keipon/Desktop/project/tt_pretraining/riscv-iommu-kawano/tb/venv/lib/python3.12/site-packages/cocotb
     0.00ns INFO     cocotb                             Running tests
     0.00ns INFO     cocotb.regression                  running scenario.test_nested_walk.test_nested_3level_walk_random (1/21)
     0.00ns INFO     cocotb.tb_ptw_wrapper              --- 実行: Nested (S1+S2) ランダム連続テスト ---
     0.00ns INFO     cocotb.tb_ptw_wrapper              ==================================================
     0.00ns INFO     cocotb.tb_ptw_wrapper                [Nested] テスト実行 1 / 10 回目
     0.00ns INFO     cocotb.tb_ptw_wrapper              ==================================================
    40.00ns INFO     cocotb.tb_ptw_wrapper                [設定] IOVA: 0xffffffdf6b34f6a6
    40.00ns INFO     cocotb.tb_ptw_wrapper                [設定] 期待される最終 GPPN: 0x1004
    40.00ns INFO     cocotb.tb_ptw_wrapper                [設定] 期待される最終 SPPN: 0x1005
    40.00ns INFO     cocotb.tb_ptw_wrapper                [MockMem] アドレス 0x1000000 に PTE 0x401801 を配置
    40.00ns INFO     cocotb.tb_ptw_wrapper                [MockMem] アドレス 0x1006040 に PTE 0x401c01 を配置
    40.00ns INFO     cocotb.tb_ptw_wrapper                [MockMem] アドレス 0x1007008 に PTE 0x4020d7 を配置
    40.00ns INFO     cocotb.tb_ptw_wrapper                [MockMem] アドレス 0x1008be8 に PTE 0x400801 を配置
    40.00ns INFO     cocotb.tb_ptw_wrapper                [MockMem] アドレス 0x1007010 に PTE 0x4024d7 を配置
    40.00ns INFO     cocotb.tb_ptw_wrapper                [MockMem] アドレス 0x1009ac8 に PTE 0x400c01 を配置
    40.00ns INFO     cocotb.tb_ptw_wrapper                [MockMem] アドレス 0x1007018 に PTE 0x4028d7 を配置
    40.00ns INFO     cocotb.tb_ptw_wrapper                [MockMem] アドレス 0x100aa78 に PTE 0x4010c7 を配置
    40.00ns INFO     cocotb.tb_ptw_wrapper                [MockMem] アドレス 0x1007020 に PTE 0x4014d7 を配置
    50.00ns INFO     cocotb.tb_ptw_wrapper                [AXI] PTWがアドレス 0x1000000 を要求！データ 0x401801 を返します。
    50.00ns INFO     cocotb.tb_ptw_wrapper                └─ [Fetched @ 0x1000000] Raw: 0x401801 -> PPN: 0x1006 | V:1 R:0 W:0 X:0 U:0 A:0 D:0
    70.00ns INFO     cocotb.tb_ptw_wrapper                [AXI] PTWがアドレス 0x1006040 を要求！データ 0x401c01 を返します。
    70.00ns INFO     cocotb.tb_ptw_wrapper                └─ [Fetched @ 0x1006040] Raw: 0x401c01 -> PPN: 0x1007 | V:1 R:0 W:0 X:0 U:0 A:0 D:0
    90.00ns INFO     cocotb.tb_ptw_wrapper                [AXI] PTWがアドレス 0x1007008 を要求！データ 0x4020d7 を返します。
    90.00ns INFO     cocotb.tb_ptw_wrapper                └─ [Fetched @ 0x1007008] Raw: 0x4020d7 -> PPN: 0x1008 | V:1 R:1 W:1 X:0 U:1 A:1 D:1
   110.00ns INFO     cocotb.tb_ptw_wrapper                [AXI] PTWがアドレス 0x1008be8 を要求！データ 0x400801 を返します。
   110.00ns INFO     cocotb.tb_ptw_wrapper                └─ [Fetched @ 0x1008be8] Raw: 0x400801 -> PPN: 0x1002 | V:1 R:0 W:0 X:0 U:0 A:0 D:0
   130.00ns INFO     cocotb.tb_ptw_wrapper                [AXI] PTWがアドレス 0x1000000 を要求！データ 0x401801 を返します。
   130.00ns INFO     cocotb.tb_ptw_wrapper                └─ [Fetched @ 0x1000000] Raw: 0x401801 -> PPN: 0x1006 | V:1 R:0 W:0 X:0 U:0 A:0 D:0
   150.00ns INFO     cocotb.tb_ptw_wrapper                [AXI] PTWがアドレス 0x1006040 を要求！データ 0x401c01 を返します。
   150.00ns INFO     cocotb.tb_ptw_wrapper                └─ [Fetched @ 0x1006040] Raw: 0x401c01 -> PPN: 0x1007 | V:1 R:0 W:0 X:0 U:0 A:0 D:0
   170.00ns INFO     cocotb.tb_ptw_wrapper                [AXI] PTWがアドレス 0x1007010 を要求！データ 0x4024d7 を返します。
   170.00ns INFO     cocotb.tb_ptw_wrapper                └─ [Fetched @ 0x1007010] Raw: 0x4024d7 -> PPN: 0x1009 | V:1 R:1 W:1 X:0 U:1 A:1 D:1
   190.00ns INFO     cocotb.tb_ptw_wrapper                [AXI] PTWがアドレス 0x1009ac8 を要求！データ 0x400c01 を返します。
   190.00ns INFO     cocotb.tb_ptw_wrapper                └─ [Fetched @ 0x1009ac8] Raw: 0x400c01 -> PPN: 0x1003 | V:1 R:0 W:0 X:0 U:0 A:0 D:0
   210.00ns INFO     cocotb.tb_ptw_wrapper                [AXI] PTWがアドレス 0x1000000 を要求！データ 0x401801 を返します。
   210.00ns INFO     cocotb.tb_ptw_wrapper                └─ [Fetched @ 0x1000000] Raw: 0x401801 -> PPN: 0x1006 | V:1 R:0 W:0 X:0 U:0 A:0 D:0
   230.00ns INFO     cocotb.tb_ptw_wrapper                [AXI] PTWがアドレス 0x1006040 を要求！データ 0x401c01 を返します。
   230.00ns INFO     cocotb.tb_ptw_wrapper                └─ [Fetched @ 0x1006040] Raw: 0x401c01 -> PPN: 0x1007 | V:1 R:0 W:0 X:0 U:0 A:0 D:0
   250.00ns INFO     cocotb.tb_ptw_wrapper                [AXI] PTWがアドレス 0x1007018 を要求！データ 0x4028d7 を返します。
   250.00ns INFO     cocotb.tb_ptw_wrapper                └─ [Fetched @ 0x1007018] Raw: 0x4028d7 -> PPN: 0x100a | V:1 R:1 W:1 X:0 U:1 A:1 D:1
   270.00ns INFO     cocotb.tb_ptw_wrapper                [AXI] PTWがアドレス 0x100aa78 を要求！データ 0x4010c7 を返します。
   270.00ns INFO     cocotb.tb_ptw_wrapper                └─ [Fetched @ 0x100aa78] Raw: 0x4010c7 -> PPN: 0x1004 | V:1 R:1 W:1 X:0 U:0 A:1 D:1
   290.00ns INFO     cocotb.tb_ptw_wrapper                [AXI] PTWがアドレス 0x1000000 を要求！データ 0x401801 を返します。
   290.00ns INFO     cocotb.tb_ptw_wrapper                └─ [Fetched @ 0x1000000] Raw: 0x401801 -> PPN: 0x1006 | V:1 R:0 W:0 X:0 U:0 A:0 D:0
   310.00ns INFO     cocotb.tb_ptw_wrapper                [AXI] PTWがアドレス 0x1006040 を要求！データ 0x401c01 を返します。
   310.00ns INFO     cocotb.tb_ptw_wrapper                └─ [Fetched @ 0x1006040] Raw: 0x401c01 -> PPN: 0x1007 | V:1 R:0 W:0 X:0 U:0 A:0 D:0
   330.00ns INFO     cocotb.tb_ptw_wrapper                [AXI] PTWがアドレス 0x1007020 を要求！データ 0x4014d7 を返します。
   330.00ns INFO     cocotb.tb_ptw_wrapper                └─ [Fetched @ 0x1007020] Raw: 0x4014d7 -> PPN: 0x1005 | V:1 R:1 W:1 X:0 U:1 A:1 D:1
   340.00ns INFO     cocotb.tb_ptw_wrapper              --- 最終出力 PTE の確認 ---
   340.00ns INFO     cocotb.tb_ptw_wrapper                └─ [Output_S1_PTE] Raw: 0x4010c7 -> PPN: 0x1004 | V:1 R:1 W:1 X:0 U:0 A:1 D:1
   340.00ns INFO     cocotb.tb_ptw_wrapper                └─ [Output_S2_PTE] Raw: 0x4014d7 -> PPN: 0x1005 | V:1 R:1 W:1 X:0 U:1 A:1 D:1
   340.00ns INFO     cocotb.tb_ptw_wrapper                ★ Nested テスト 1 回目 完璧にクリア！
   340.00ns INFO     cocotb.tb_ptw_wrapper              ==================================================
   340.00ns INFO     cocotb.tb_ptw_wrapper                [Nested] テスト実行 2 / 10 回目
   340.00ns INFO     cocotb.tb_ptw_wrapper              ==================================================
   390.00ns INFO     cocotb.tb_ptw_wrapper                [設定] IOVA: 0x30ef548d1c
   390.00ns INFO     cocotb.tb_ptw_wrapper                [設定] 期待される最終 GPPN: 0x1004
   390.00ns INFO     cocotb.tb_ptw_wrapper                [設定] 期待される最終 SPPN: 0x1005
   390.00ns INFO     cocotb.tb_ptw_wrapper                [MockMem] アドレス 0x1000000 に PTE 0x401801 を配置
   390.00ns INFO     cocotb.tb_ptw_wrapper                [MockMem] アドレス 0x1006040 に PTE 0x401c01 を配置
   390.00ns INFO     cocotb.tb_ptw_wrapper                [MockMem] アドレス 0x1007008 に PTE 0x4020d7 を配置
   390.00ns INFO     cocotb.tb_ptw_wrapper                [MockMem] アドレス 0x1008618 に PTE 0x400801 を配置
   390.00ns INFO     cocotb.tb_ptw_wrapper                [MockMem] アドレス 0x1007010 に PTE 0x4024d7 を配置
   390.00ns INFO     cocotb.tb_ptw_wrapper                [MockMem] アドレス 0x1009bd0 に PTE 0x400c01 を配置
   390.00ns INFO     cocotb.tb_ptw_wrapper                [MockMem] アドレス 0x1007018 に PTE 0x4028d7 を配置
   390.00ns INFO     cocotb.tb_ptw_wrapper                [MockMem] アドレス 0x100aa40 に PTE 0x4010c7 を配置
   390.00ns INFO     cocotb.tb_ptw_wrapper                [MockMem] アドレス 0x1007020 に PTE 0x4014d7 を配置
   400.00ns INFO     cocotb.tb_ptw_wrapper                [AXI] PTWがアドレス 0x1000000 を要求！データ 0x401801 を返します。
   400.00ns INFO     cocotb.tb_ptw_wrapper                └─ [Fetched @ 0x1000000] Raw: 0x401801 -> PPN: 0x1006 | V:1 R:0 W:0 X:0 U:0 A:0 D:0
   420.00ns INFO     cocotb.tb_ptw_wrapper                [AXI] PTWがアドレス 0x1006040 を要求！データ 0x401c01 を返します。
   420.00ns INFO     cocotb.tb_ptw_wrapper                └─ [Fetched @ 0x1006040] Raw: 0x401c01 -> PPN: 0x1007 | V:1 R:0 W:0 X:0 U:0 A:0 D:0
   440.00ns INFO     cocotb.tb_ptw_wrapper                [AXI] PTWがアドレス 0x1007008 を要求！データ 0x4020d7 を返します。
   440.00ns INFO     cocotb.tb_ptw_wrapper                └─ [Fetched @ 0x1007008] Raw: 0x4020d7 -> PPN: 0x1008 | V:1 R:1 W:1 X:0 U:1 A:1 D:1
   460.00ns INFO     cocotb.tb_ptw_wrapper                [AXI] PTWがアドレス 0x1008618 を要求！データ 0x400801 を返します。
   460.00ns INFO     cocotb.tb_ptw_wrapper                └─ [Fetched @ 0x1008618] Raw: 0x400801 -> PPN: 0x1002 | V:1 R:0 W:0 X:0 U:0 A:0 D:0
   480.00ns INFO     cocotb.tb_ptw_wrapper                [AXI] PTWがアドレス 0x1000000 を要求！データ 0x401801 を返します。
   480.00ns INFO     cocotb.tb_ptw_wrapper                └─ [Fetched @ 0x1000000] Raw: 0x401801 -> PPN: 0x1006 | V:1 R:0 W:0 X:0 U:0 A:0 D:0
   500.00ns INFO     cocotb.tb_ptw_wrapper                [AXI] PTWがアドレス 0x1006040 を要求！データ 0x401c01 を返します。
   500.00ns INFO     cocotb.tb_ptw_wrapper                └─ [Fetched @ 0x1006040] Raw: 0x401c01 -> PPN: 0x1007 | V:1 R:0 W:0 X:0 U:0 A:0 D:0
   520.00ns INFO     cocotb.tb_ptw_wrapper                [AXI] PTWがアドレス 0x1007010 を要求！データ 0x4024d7 を返します。
   520.00ns INFO     cocotb.tb_ptw_wrapper                └─ [Fetched @ 0x1007010] Raw: 0x4024d7 -> PPN: 0x1009 | V:1 R:1 W:1 X:0 U:1 A:1 D:1
   540.00ns INFO     cocotb.tb_ptw_wrapper                [AXI] PTWがアドレス 0x1009bd0 を要求！データ 0x400c01 を返します。
   540.00ns INFO     cocotb.tb_ptw_wrapper                └─ [Fetched @ 0x1009bd0] Raw: 0x400c01 -> PPN: 0x1003 | V:1 R:0 W:0 X:0 U:0 A:0 D:0
   560.00ns INFO     cocotb.tb_ptw_wrapper                [AXI] PTWがアドレス 0x1000000 を要求！データ 0x401801 を返します。
   560.00ns INFO     cocotb.tb_ptw_wrapper                └─ [Fetched @ 0x1000000] Raw: 0x401801 -> PPN: 0x1006 | V:1 R:0 W:0 X:0 U:0 A:0 D:0
   580.00ns INFO     cocotb.tb_ptw_wrapper                [AXI] PTWがアドレス 0x1006040 を要求！データ 0x401c01 を返します。
   580.00ns INFO     cocotb.tb_ptw_wrapper                └─ [Fetched @ 0x1006040] Raw: 0x401c01 -> PPN: 0x1007 | V:1 R:0 W:0 X:0 U:0 A:0 D:0
   600.00ns INFO     cocotb.tb_ptw_wrapper                [AXI] PTWがアドレス 0x1007018 を要求！データ 0x4028d7 を返します。
   600.00ns INFO     cocotb.tb_ptw_wrapper                └─ [Fetched @ 0x1007018] Raw: 0x4028d7 -> PPN: 0x100a | V:1 R:1 W:1 X:0 U:1 A:1 D:1
   620.00ns INFO     cocotb.tb_ptw_wrapper                [AXI] PTWがアドレス 0x100aa40 を要求！データ 0x4010c7 を返します。
   620.00ns INFO     cocotb.tb_ptw_wrapper                └─ [Fetched @ 0x100aa40] Raw: 0x4010c7 -> PPN: 0x1004 | V:1 R:1 W:1 X:0 U:0 A:1 D:1
   640.00ns INFO     cocotb.tb_ptw_wrapper                [AXI] PTWがアドレス 0x1000000 を要求！データ 0x401801 を返します。
   640.00ns INFO     cocotb.tb_ptw_wrapper                └─ [Fetched @ 0x1000000] Raw: 0x401801 -> PPN: 0x1006 | V:1 R:0 W:0 X:0 U:0 A:0 D:0
   660.00ns INFO     cocotb.tb_ptw_wrapper                [AXI] PTWがアドレス 0x1006040 を要求！データ 0x401c01 を返します。
   660.00ns INFO     cocotb.tb_ptw_wrapper                └─ [Fetched @ 0x1006040] Raw: 0x401c01 -> PPN: 0x1007 | V:1 R:0 W:0 X:0 U:0 A:0 D:0
   680.00ns INFO     cocotb.tb_ptw_wrapper                [AXI] PTWがアドレス 0x1007020 を要求！データ 0x4014d7 を返します。
   680.00ns INFO     cocotb.tb_ptw_wrapper                └─ [Fetched @ 0x1007020] Raw: 0x4014d7 -> PPN: 0x1005 | V:1 R:1 W:1 X:0 U:1 A:1 D:1
   690.00ns INFO     cocotb.tb_ptw_wrapper              --- 最終出力 PTE の確認 ---
   690.00ns INFO     cocotb.tb_ptw_wrapper                └─ [Output_S1_PTE] Raw: 0x4010c7 -> PPN: 0x1004 | V:1 R:1 W:1 X:0 U:0 A:1 D:1
   690.00ns INFO     cocotb.tb_ptw_wrapper                └─ [Output_S2_PTE] Raw: 0x4014d7 -> PPN: 0x1005 | V:1 R:1 W:1 X:0 U:1 A:1 D:1
   690.00ns INFO     cocotb.tb_ptw_wrapper                ★ Nested テスト 2 回目 完璧にクリア！
   690.00ns INFO     cocotb.tb_ptw_wrapper              ==================================================
   690.00ns INFO     cocotb.tb_ptw_wrapper                [Nested] テスト実行 3 / 10 回目
   690.00ns INFO     cocotb.tb_ptw_wrapper              ==================================================
   740.00ns INFO     cocotb.tb_ptw_wrapper                [設定] IOVA: 0x351a95a079
   740.00ns INFO     cocotb.tb_ptw_wrapper                [設定] 期待される最終 GPPN: 0x1004
   740.00ns INFO     cocotb.tb_ptw_wrapper                [設定] 期待される最終 SPPN: 0x1005
   740.00ns INFO     cocotb.tb_ptw_wrapper                [MockMem] アドレス 0x1000000 に PTE 0x401801 を配置
   740.00ns INFO     cocotb.tb_ptw_wrapper                [MockMem] アドレス 0x1006040 に PTE 0x401c01 を配置
   740.00ns INFO     cocotb.tb_ptw_wrapper                [MockMem] アドレス 0x1007008 に PTE 0x4020d7 を配置
   740.00ns INFO     cocotb.tb_ptw_wrapper                [MockMem] アドレス 0x10086a0 に PTE 0x400801 を配置
   740.00ns INFO     cocotb.tb_ptw_wrapper                [MockMem] アドレス 0x1007010 に PTE 0x4024d7 を配置
   740.00ns INFO     cocotb.tb_ptw_wrapper                [MockMem] アドレス 0x10096a0 に PTE 0x400c01 を配置
   740.00ns INFO     cocotb.tb_ptw_wrapper                [MockMem] アドレス 0x1007018 に PTE 0x4028d7 を配置
   740.00ns INFO     cocotb.tb_ptw_wrapper                [MockMem] アドレス 0x100aad0 に PTE 0x4010c7 を配置
   740.00ns INFO     cocotb.tb_ptw_wrapper                [MockMem] アドレス 0x1007020 に PTE 0x4014d7 を配置
   750.00ns INFO     cocotb.tb_ptw_wrapper                [AXI] PTWがアドレス 0x1000000 を要求！データ 0x401801 を返します。
   750.00ns INFO     cocotb.tb_ptw_wrapper                └─ [Fetched @ 0x1000000] Raw: 0x401801 -> PPN: 0x1006 | V:1 R:0 W:0 X:0 U:0 A:0 D:0
   770.00ns INFO     cocotb.tb_ptw_wrapper                [AXI] PTWがアドレス 0x1006040 を要求！データ 0x401c01 を返します。
   770.00ns INFO     cocotb.tb_ptw_wrapper                └─ [Fetched @ 0x1006040] Raw: 0x401c01 -> PPN: 0x1007 | V:1 R:0 W:0 X:0 U:0 A:0 D:0
   790.00ns INFO     cocotb.tb_ptw_wrapper                [AXI] PTWがアドレス 0x1007008 を要求！データ 0x4020d7 を返します。
   790.00ns INFO     cocotb.tb_ptw_wrapper                └─ [Fetched @ 0x1007008] Raw: 0x4020d7 -> PPN: 0x1008 | V:1 R:1 W:1 X:0 U:1 A:1 D:1
   810.00ns INFO     cocotb.tb_ptw_wrapper                [AXI] PTWがアドレス 0x10086a0 を要求！データ 0x400801 を返します。
   810.00ns INFO     cocotb.tb_ptw_wrapper                └─ [Fetched @ 0x10086a0] Raw: 0x400801 -> PPN: 0x1002 | V:1 R:0 W:0 X:0 U:0 A:0 D:0
   830.00ns INFO     cocotb.tb_ptw_wrapper                [AXI] PTWがアドレス 0x1000000 を要求！データ 0x401801 を返します。
   830.00ns INFO     cocotb.tb_ptw_wrapper                └─ [Fetched @ 0x1000000] Raw: 0x401801 -> PPN: 0x1006 | V:1 R:0 W:0 X:0 U:0 A:0 D:0
   850.00ns INFO     cocotb.tb_ptw_wrapper                [AXI] PTWがアドレス 0x1006040 を要求！データ 0x401c01 を返します。
   850.00ns INFO     cocotb.tb_ptw_wrapper                └─ [Fetched @ 0x1006040] Raw: 0x401c01 -> PPN: 0x1007 | V:1 R:0 W:0 X:0 U:0 A:0 D:0
   870.00ns INFO     cocotb.tb_ptw_wrapper                [AXI] PTWがアドレス 0x1007010 を要求！データ 0x4024d7 を返します。
   870.00ns INFO     cocotb.tb_ptw_wrapper                └─ [Fetched @ 0x1007010] Raw: 0x4024d7 -> PPN: 0x1009 | V:1 R:1 W:1 X:0 U:1 A:1 D:1
   890.00ns INFO     cocotb.tb_ptw_wrapper                [AXI] PTWがアドレス 0x10096a0 を要求！データ 0x400c01 を返します。
   890.00ns INFO     cocotb.tb_ptw_wrapper                └─ [Fetched @ 0x10096a0] Raw: 0x400c01 -> PPN: 0x1003 | V:1 R:0 W:0 X:0 U:0 A:0 D:0
   910.00ns INFO     cocotb.tb_ptw_wrapper                [AXI] PTWがアドレス 0x1000000 を要求！データ 0x401801 を返します。
   910.00ns INFO     cocotb.tb_ptw_wrapper                └─ [Fetched @ 0x1000000] Raw: 0x401801 -> PPN: 0x1006 | V:1 R:0 W:0 X:0 U:0 A:0 D:0
   930.00ns INFO     cocotb.tb_ptw_wrapper                [AXI] PTWがアドレス 0x1006040 を要求！データ 0x401c01 を返します。
   930.00ns INFO     cocotb.tb_ptw_wrapper                └─ [Fetched @ 0x1006040] Raw: 0x401c01 -> PPN: 0x1007 | V:1 R:0 W:0 X:0 U:0 A:0 D:0
   950.00ns INFO     cocotb.tb_ptw_wrapper                [AXI] PTWがアドレス 0x1007018 を要求！データ 0x4028d7 を返します。
   950.00ns INFO     cocotb.tb_ptw_wrapper                └─ [Fetched @ 0x1007018] Raw: 0x4028d7 -> PPN: 0x100a | V:1 R:1 W:1 X:0 U:1 A:1 D:1
   970.00ns INFO     cocotb.tb_ptw_wrapper                [AXI] PTWがアドレス 0x100aad0 を要求！データ 0x4010c7 を返します。
   970.00ns INFO     cocotb.tb_ptw_wrapper                └─ [Fetched @ 0x100aad0] Raw: 0x4010c7 -> PPN: 0x1004 | V:1 R:1 W:1 X:0 U:0 A:1 D:1
   990.00ns INFO     cocotb.tb_ptw_wrapper                [AXI] PTWがアドレス 0x1000000 を要求！データ 0x401801 を返します。
   990.00ns INFO     cocotb.tb_ptw_wrapper                └─ [Fetched @ 0x1000000] Raw: 0x401801 -> PPN: 0x1006 | V:1 R:0 W:0 X:0 U:0 A:0 D:0
  1010.00ns INFO     cocotb.tb_ptw_wrapper                [AXI] PTWがアドレス 0x1006040 を要求！データ 0x401c01 を返します。
  1010.00ns INFO     cocotb.tb_ptw_wrapper                └─ [Fetched @ 0x1006040] Raw: 0x401c01 -> PPN: 0x1007 | V:1 R:0 W:0 X:0 U:0 A:0 D:0
  1030.00ns INFO     cocotb.tb_ptw_wrapper                [AXI] PTWがアドレス 0x1007020 を要求！データ 0x4014d7 を返します。
  1030.00ns INFO     cocotb.tb_ptw_wrapper                └─ [Fetched @ 0x1007020] Raw: 0x4014d7 -> PPN: 0x1005 | V:1 R:1 W:1 X:0 U:1 A:1 D:1
  1040.00ns INFO     cocotb.tb_ptw_wrapper              --- 最終出力 PTE の確認 ---
  1040.00ns INFO     cocotb.tb_ptw_wrapper                └─ [Output_S1_PTE] Raw: 0x4010c7 -> PPN: 0x1004 | V:1 R:1 W:1 X:0 U:0 A:1 D:1
  1040.00ns INFO     cocotb.tb_ptw_wrapper                └─ [Output_S2_PTE] Raw: 0x4014d7 -> PPN: 0x1005 | V:1 R:1 W:1 X:0 U:1 A:1 D:1
  1040.00ns INFO     cocotb.tb_ptw_wrapper                ★ Nested テスト 3 回目 完璧にクリア！
  1040.00ns INFO     cocotb.tb_ptw_wrapper              ==================================================
  1040.00ns INFO     cocotb.tb_ptw_wrapper                [Nested] テスト実行 4 / 10 回目
  1040.00ns INFO     cocotb.tb_ptw_wrapper              ==================================================
  1090.00ns INFO     cocotb.tb_ptw_wrapper                [設定] IOVA: 0x2d95952b49
  1090.00ns INFO     cocotb.tb_ptw_wrapper                [設定] 期待される最終 GPPN: 0x1004
  1090.00ns INFO     cocotb.tb_ptw_wrapper                [設定] 期待される最終 SPPN: 0x1005
  1090.00ns INFO     cocotb.tb_ptw_wrapper                [MockMem] アドレス 0x1000000 に PTE 0x401801 を配置
  1090.00ns INFO     cocotb.tb_ptw_wrapper                [MockMem] アドレス 0x1006040 に PTE 0x401c01 を配置
  1090.00ns INFO     cocotb.tb_ptw_wrapper                [MockMem] アドレス 0x1007008 に PTE 0x4020d7 を配置
  1090.00ns INFO     cocotb.tb_ptw_wrapper                [MockMem] アドレス 0x10085b0 に PTE 0x400801 を配置
  1090.00ns INFO     cocotb.tb_ptw_wrapper                [MockMem] アドレス 0x1007010 に PTE 0x4024d7 を配置
  1090.00ns INFO     cocotb.tb_ptw_wrapper                [MockMem] アドレス 0x1009560 に PTE 0x400c01 を配置
  1090.00ns INFO     cocotb.tb_ptw_wrapper                [MockMem] アドレス 0x1007018 に PTE 0x4028d7 を配置
  1090.00ns INFO     cocotb.tb_ptw_wrapper                [MockMem] アドレス 0x100aa90 に PTE 0x4010c7 を配置
  1090.00ns INFO     cocotb.tb_ptw_wrapper                [MockMem] アドレス 0x1007020 に PTE 0x4014d7 を配置
  1100.00ns INFO     cocotb.tb_ptw_wrapper                [AXI] PTWがアドレス 0x1000000 を要求！データ 0x401801 を返します。
  1100.00ns INFO     cocotb.tb_ptw_wrapper                └─ [Fetched @ 0x1000000] Raw: 0x401801 -> PPN: 0x1006 | V:1 R:0 W:0 X:0 U:0 A:0 D:0
  1120.00ns INFO     cocotb.tb_ptw_wrapper                [AXI] PTWがアドレス 0x1006040 を要求！データ 0x401c01 を返します。
  1120.00ns INFO     cocotb.tb_ptw_wrapper                └─ [Fetched @ 0x1006040] Raw: 0x401c01 -> PPN: 0x1007 | V:1 R:0 W:0 X:0 U:0 A:0 D:0
  1140.00ns INFO     cocotb.tb_ptw_wrapper                [AXI] PTWがアドレス 0x1007008 を要求！データ 0x4020d7 を返します。
  1140.00ns INFO     cocotb.tb_ptw_wrapper                └─ [Fetched @ 0x1007008] Raw: 0x4020d7 -> PPN: 0x1008 | V:1 R:1 W:1 X:0 U:1 A:1 D:1
  1160.00ns INFO     cocotb.tb_ptw_wrapper                [AXI] PTWがアドレス 0x10085b0 を要求！データ 0x400801 を返します。
  1160.00ns INFO     cocotb.tb_ptw_wrapper                └─ [Fetched @ 0x10085b0] Raw: 0x400801 -> PPN: 0x1002 | V:1 R:0 W:0 X:0 U:0 A:0 D:0
  1180.00ns INFO     cocotb.tb_ptw_wrapper                [AXI] PTWがアドレス 0x1000000 を要求！データ 0x401801 を返します。
  1180.00ns INFO     cocotb.tb_ptw_wrapper                └─ [Fetched @ 0x1000000] Raw: 0x401801 -> PPN: 0x1006 | V:1 R:0 W:0 X:0 U:0 A:0 D:0
  1200.00ns INFO     cocotb.tb_ptw_wrapper                [AXI] PTWがアドレス 0x1006040 を要求！データ 0x401c01 を返します。
  1200.00ns INFO     cocotb.tb_ptw_wrapper                └─ [Fetched @ 0x1006040] Raw: 0x401c01 -> PPN: 0x1007 | V:1 R:0 W:0 X:0 U:0 A:0 D:0
  1220.00ns INFO     cocotb.tb_ptw_wrapper                [AXI] PTWがアドレス 0x1007010 を要求！データ 0x4024d7 を返します。
  1220.00ns INFO     cocotb.tb_ptw_wrapper                └─ [Fetched @ 0x1007010] Raw: 0x4024d7 -> PPN: 0x1009 | V:1 R:1 W:1 X:0 U:1 A:1 D:1
  1240.00ns INFO     cocotb.tb_ptw_wrapper                [AXI] PTWがアドレス 0x1009560 を要求！データ 0x400c01 を返します。
  1240.00ns INFO     cocotb.tb_ptw_wrapper                └─ [Fetched @ 0x1009560] Raw: 0x400c01 -> PPN: 0x1003 | V:1 R:0 W:0 X:0 U:0 A:0 D:0
  1260.00ns INFO     cocotb.tb_ptw_wrapper                [AXI] PTWがアドレス 0x1000000 を要求！データ 0x401801 を返します。
  1260.00ns INFO     cocotb.tb_ptw_wrapper                └─ [Fetched @ 0x1000000] Raw: 0x401801 -> PPN: 0x1006 | V:1 R:0 W:0 X:0 U:0 A:0 D:0
  1280.00ns INFO     cocotb.tb_ptw_wrapper                [AXI] PTWがアドレス 0x1006040 を要求！データ 0x401c01 を返します。
  1280.00ns INFO     cocotb.tb_ptw_wrapper                └─ [Fetched @ 0x1006040] Raw: 0x401c01 -> PPN: 0x1007 | V:1 R:0 W:0 X:0 U:0 A:0 D:0
  1300.00ns INFO     cocotb.tb_ptw_wrapper                [AXI] PTWがアドレス 0x1007018 を要求！データ 0x4028d7 を返します。
  1300.00ns INFO     cocotb.tb_ptw_wrapper                └─ [Fetched @ 0x1007018] Raw: 0x4028d7 -> PPN: 0x100a | V:1 R:1 W:1 X:0 U:1 A:1 D:1
  1320.00ns INFO     cocotb.tb_ptw_wrapper                [AXI] PTWがアドレス 0x100aa90 を要求！データ 0x4010c7 を返します。
  1320.00ns INFO     cocotb.tb_ptw_wrapper                └─ [Fetched @ 0x100aa90] Raw: 0x4010c7 -> PPN: 0x1004 | V:1 R:1 W:1 X:0 U:0 A:1 D:1
  1340.00ns INFO     cocotb.tb_ptw_wrapper                [AXI] PTWがアドレス 0x1000000 を要求！データ 0x401801 を返します。
  1340.00ns INFO     cocotb.tb_ptw_wrapper                └─ [Fetched @ 0x1000000] Raw: 0x401801 -> PPN: 0x1006 | V:1 R:0 W:0 X:0 U:0 A:0 D:0
  1360.00ns INFO     cocotb.tb_ptw_wrapper                [AXI] PTWがアドレス 0x1006040 を要求！データ 0x401c01 を返します。
  1360.00ns INFO     cocotb.tb_ptw_wrapper                └─ [Fetched @ 0x1006040] Raw: 0x401c01 -> PPN: 0x1007 | V:1 R:0 W:0 X:0 U:0 A:0 D:0
  1380.00ns INFO     cocotb.tb_ptw_wrapper                [AXI] PTWがアドレス 0x1007020 を要求！データ 0x4014d7 を返します。
  1380.00ns INFO     cocotb.tb_ptw_wrapper                └─ [Fetched @ 0x1007020] Raw: 0x4014d7 -> PPN: 0x1005 | V:1 R:1 W:1 X:0 U:1 A:1 D:1
  1390.00ns INFO     cocotb.tb_ptw_wrapper              --- 最終出力 PTE の確認 ---
  1390.00ns INFO     cocotb.tb_ptw_wrapper                └─ [Output_S1_PTE] Raw: 0x4010c7 -> PPN: 0x1004 | V:1 R:1 W:1 X:0 U:0 A:1 D:1
  1390.00ns INFO     cocotb.tb_ptw_wrapper                └─ [Output_S2_PTE] Raw: 0x4014d7 -> PPN: 0x1005 | V:1 R:1 W:1 X:0 U:1 A:1 D:1
  1390.00ns INFO     cocotb.tb_ptw_wrapper                ★ Nested テスト 4 回目 完璧にクリア！
  1390.00ns INFO     cocotb.tb_ptw_wrapper              ==================================================
  1390.00ns INFO     cocotb.tb_ptw_wrapper                [Nested] テスト実行 5 / 10 回目
  1390.00ns INFO     cocotb.tb_ptw_wrapper              ==================================================
  1440.00ns INFO     cocotb.tb_ptw_wrapper                [設定] IOVA: 0x3a3847317e
